﻿{
  
  "#Include": [
    "IncludeChild1Child1.json",
    "IncludeChild1Child2.json",
    "IncludeChild1Child3.json",
  ],
  "LabelHome": {
    "en_US": "Piatra Craiului Museum",
    "ro_RO": "Muzeul Piatra Craiului",
  },

  "LabelAbout": {
    "en_US": "Piatra Craiului Museum",
    "ro_RO": "Muzeul Piatra Craiului",
  },

}