﻿{
  "#Include": [
    "/LanguagesTestsData/Inclusion/IncludeChildAbsolute.json",
  ],
  "ApplicationTitle": {
    "en_US": "Piatra Craiului Museum",
    "ro_RO": "Muzeul Piatra Craiului",
  },

  "ApplicationAbout": {
    "en_US": "Piatra Craiului Museum",
    "ro_RO": "Muzeul Piatra Craiului",
  },

}