﻿{
  
  "LabelLight": {
    "en_US": "Piatra Craiului Museum",
    "ro_RO": "Muzeul Piatra Craiului",
  },

  "LabelSearch": {
    "en_US": "Piatra Craiului Museum",
    "ro_RO": "Muzeul Piatra Craiului",
  },

}