﻿{
  "RelativeHome": {
    "en_US": "Piatra Craiului Museum",
    "ro_RO": "Muzeul Piatra Craiului",
  },

  "RelativeAbout": {
    "en_US": "Piatra Craiului Museum",
    "ro_RO": "Muzeul Piatra Craiului",
  },

}