﻿{

  "ApplicationTitle": {
    "en_US": "Piatra Craiului Museum",
    "ro_RO": "Muzeul Piatra Craiului"
  },

  "ApplicationAbout": {
    "en_US": "Piatra Crdfaiului Museum",
    "ro_RO": "Muzeul Piatra Craiului"
  },

  "GoodOldPal12": {
    "en_US": "My friend",
    "ro_RO": "Tovarășul meu"
  }
}